{
    "keywords": [
        "département",
        "faculté",
        "programmes"
    ],
    "answers": [
        {
            "sender": "Bot",
            "message": "Les départements du Groupe Sup de Co sont les suivants",
            "data": "<ul><li><strong>School of  Management</a> </strong><ul><li> <a href='https://www.supdeco.sn/-L-Institut-Mercure-'> L'Institut Mercure</a> </li><li> <a href='https://www.supdeco.sn/-Le-Programme-Grande-Ecole-'>Le Programme Grande Ecole</a> </li><li> <a href='https://www.supdeco.sn/-L-Executive-Center-'>L'Excecutive Academy</a> </li></ul></li><li><strong> School of Engineering and Technology</strong><ul><li> <a href='https://www.supdeco.sn/-Ecole-Superieure-d-Informatique-et-'>ESITEC</a> </li><li> <a href='http://www.epita.sn/'>EPITA Dakar</a> </li></ul></li><li><strong> <a href='https://www.supdeco.sn/-Institut-Superieur-des-Transports-'>School of Transport and Logistics </strong></li><li><strong> <a href='https://www.supdeco.sn/-School-of-Law-'>School of Law</a> </strong></li><li><strong> <a href='https://www.supdeco.sn/-L-Institut-de-Langues-Supdeco-'>School of Languages and Communication</a> </strong></li><li><strong> <a href='https://www.supdeco.sn/-Institut-de-Management-Public-IMAP-'>School of Public Management</a> </strong></li><a href='https://www.supdeco.sn/-Programmes-'>En savoir plus</a></ul></ul>",
            "dataType": "html"
        }
    ]
}