{
    "keywords": [
        "conditions",
        "admission",
        "admis"
    ],
    "answers": [
        {
            "sender": "Bot",
            "message": "Les conditions d'admission à nos formations dépendent du niveau d'entrée",
            "data": "<ul><li>Pour une admission en <strong>L1 </strong> : Une étude de dossier, un test d'entrée puis un entretien de séléction</li><li>Pour la <strong>L1 </b> et la <strong>L3 </b> : Une étude de dossier et un entretien de sélection </li></ul><p>Vous pouvez candidater <a href=''http://admission.supdeco.sn/index.php/candidature'>ici</a></p>",
            "dataType": "html"
        }
    ]
}