{
    "keywords": [
        "coût",
        "prix",
        "coûte"
    ],
    "answers": [
        {
            "sender": "Bot",
            "message": "Le prix de la formation au Groupe SupdeCo varie en fonction de la filière choisie et du niveau d'études, veuillez envoyer un email à l'adresse suivante pour avoir des informations détaillées.",
            "data": "admission@supdeco.edu.sn",
            "dataType": "email"
        },
        {
            "sender": "Bot",
            "message": "Le coût de la formation au Groupe SupdeCo varie en fonction de la filière choisie et du niveau d'études, veuillez envoyer un email à l'adresse suivante pour avoir des informations détaillées.",
            "data": "admission@supdeco.edu.sn",
            "dataType": "email"
        }
    ]
}