{
    "keywords": [
        "temps",
        "durée"
    ],
    "answers": [
        {
            "sender": "Bot",
            "message": "La durée de formation varie en fonction du niveau d'études",
            "data": "<ul><li>Pour le cycle  <strong>Licence</strong> : 7 à 8 mois</li><li>Pour le cycle <strong>Master </strong> : 8 à 10 mois </li></ul>",
            "dataType": "html"
        }
    ]
}